{
    "/js/app.js": "/js/app.js?id=1b5c1c5705c51d1d820d",
    "/css/app.css": "/css/app.css?id=1c3d1af2ae91f0a9c58b",
    "/css/auth.css": "/css/auth.css?id=452a002710d80b3af4cb",
    "/js/app.js.map": "/js/app.js.map?id=31c9c407581c5b8c0815",
    "/css/app.css.map": "/css/app.css.map?id=8b8cf55f85a6fcba2585",
    "/css/auth.css.map": "/css/auth.css.map?id=3b235c8cbdf7d03bdb55",
    "/js/vendor.js": "/js/vendor.js?id=1dd22d0981d6330a3046",
    "/js/vendor.js.map": "/js/vendor.js.map?id=c2643acf7bea1d3247b7",
    "/js/manifest.js": "/js/manifest.js?id=d64713044d4b02b1808b",
    "/js/manifest.js.map": "/js/manifest.js.map?id=cac3e51efd97f5da4caf"
}
